{
    "context": {
        "range": "Keyboards matching '\u1275'",
        "text": "ት",
        "pageSize": 10,
        "pageNumber": 1,
        "totalRows": 13,
        "totalPages": 2
    },
    "keyboards": [
        {
            "id": "sil_ethiopic",
            "name": "SIL Ethiopic",
            "description": "The SIL Ethiopic keyboard was developed to input Ethiopic Fidel scripts. You can use this keyboard with any Ethiopic Unicode font unless you need to use the newer Unicode 6.0+ Ethiopic codepoints (for Basketo, Gumuz and Gamo-Gofa-Dawro) or the two Private Use Area (PUA) characters of this keyboard. The Abyssinica SIL font (version 1.5+) is recommended if you need to use these newer Unicode 6.0+ or PUA characters.",
            "related": {
                "silethiopicv1.3k7": {
                    "deprecates": true
                }
            },
            "authorName": "SIL International",
            "license": "mit",
            "languages": {
                "am": {
                    "displayName": "Amharic",
                    "languageName": "Amharic"
                },
                "bst-ethi": {
                    "displayName": "Basketo (Ethiopic)",
                    "languageName": "Basketo",
                    "scriptName": "Ethiopic"
                },
                "bcq-ethi": {
                    "displayName": "Bench (Ethiopic)",
                    "languageName": "Bench",
                    "scriptName": "Ethiopic"
                },
                "gdl-ethi": {
                    "displayName": "Dirasha (Ethiopic)",
                    "languageName": "Dirasha",
                    "scriptName": "Ethiopic"
                },
                "mdx-ethi": {
                    "displayName": "Dizin (Ethiopic)",
                    "languageName": "Dizin",
                    "scriptName": "Ethiopic"
                },
                "gez-ethi": {
                    "displayName": "Geez (Ethiopic)",
                    "languageName": "Geez",
                    "scriptName": "Ethiopic"
                },
                "guk-ethi": {
                    "displayName": "Gumuz (Ethiopic)",
                    "languageName": "Gumuz",
                    "scriptName": "Ethiopic"
                },
                "kxc-ethi": {
                    "displayName": "Konso (Ethiopic)",
                    "languageName": "Konso",
                    "scriptName": "Ethiopic"
                },
                "suq-ethi": {
                    "displayName": "Suri (Ethiopic)",
                    "languageName": "Suri",
                    "scriptName": "Ethiopic"
                },
                "tig-ethi": {
                    "displayName": "Tigre (Ethiopic)",
                    "languageName": "Tigre",
                    "scriptName": "Ethiopic"
                },
                "zay-ethi": {
                    "displayName": "Zayse-Zergulla (Ethiopic)",
                    "languageName": "Zayse-Zergulla",
                    "scriptName": "Ethiopic"
                }
            },
            "authorEmail": "computer_ethiopia@sil.org",
            "lastModifiedDate": "2020-06-12T00:41:06.310Z",
            "sourcePath": "release/sil/sil_ethiopic",
            "version": "2.0.3",
            "packageFilename": "sil_ethiopic.kmp",
            "encodings": [
                "unicode"
            ],
            "packageFileSize": 27350,
            "packageIncludes": [
                "welcome",
                "documentation"
            ],
            "minKeymanVersion": "9.0",
            "helpLink": "https://help.keyman.com/keyboard/sil_ethiopic",
            "platformSupport": {
                "windows": "full",
                "macos": "full",
                "linux": "full"
            },
            "match": {
                "name": "\u1275\u130d\u122b\u12ed\u1275",
                "type": "language",
                "tag": "tig-ethi",
                "weight": 30,
                "downloads": 470,
                "totalDownloads": 470,
                "finalWeight": 214.64574282049253
            }
        },
        {
            "license": "mit",
            "languages": {
                "ti-ethi-er": {
                    "example": {
                        "keys": "tgrNa",
                        "text": "\u1275\u130d\u122d\u129b",
                        "note": "Name of language"
                    },
                    "displayName": "Tigrinya (Ethiopic, Eritrea)",
                    "languageName": "Tigrinya",
                    "scriptName": "Ethiopic",
                    "regionName": "Eritrea"
                }
            },
            "description": "An intuitive, easy to use, keyboard for entering Eritrean Tigrinya with standard English keyboards according to the GFF convention for Ethiopic script languages.",
            "related": {
                "gff-tir-er-powerpack-7": {
                    "deprecates": true
                },
                "gff_tir_er_7": {
                    "deprecates": true
                },
                "tir_er_uni_ez": {
                    "deprecates": true
                },
                "tir-er-uni": {
                    "deprecates": true
                }
            },
            "id": "gff_tigrinya_eritrea",
            "name": "GFF Tigrinya-Eritrean Keyboard",
            "authorName": "The Ge'ez Frontier Foundation",
            "authorEmail": "keyboards@ethiopic.org",
            "lastModifiedDate": "2020-06-12T00:39:25.770Z",
            "sourcePath": "release/gff/gff_tigrinya_eritrea",
            "version": "1.3.1",
            "packageFilename": "gff_tigrinya_eritrea.kmp",
            "encodings": [
                "unicode"
            ],
            "packageFileSize": 3663562,
            "packageIncludes": [
                "documentation",
                "visualKeyboard",
                "fonts",
                "welcome"
            ],
            "minKeymanVersion": "9.0",
            "helpLink": "https://help.keyman.com/keyboard/gff_tigrinya_eritrea",
            "platformSupport": {
                "windows": "full",
                "macos": "full",
                "linux": "full"
            },
            "match": {
                "name": "\u1275\u130d\u122d\u129b",
                "type": "language",
                "tag": "ti-ethi-er",
                "weight": 30,
                "downloads": 234,
                "totalDownloads": 234,
                "finalWeight": 193.78756542432478
            }
        },
        {
            "license": "mit",
            "languages": {
                "ti-et": {
                    "example": {
                        "keys": "tgrNa",
                        "text": "\u1275\u130d\u122d\u129b",
                        "note": "Name of language"
                    },
                    "displayName": "Tigrinya (Ethiopia)",
                    "languageName": "Tigrinya",
                    "regionName": "Ethiopia"
                }
            },
            "description": "An intuitive, easy to use, keyboard for entering Ethiopian Tigrinya with standard English keyboards according to the GFF convention for Ethiopic script languages.",
            "related": {
                "gff-tir-et-powerpack-7": {
                    "deprecates": true
                },
                "gff_tir_et_7": {
                    "deprecates": true
                },
                "tir_et_uni_ez": {
                    "deprecates": true
                },
                "tir-et-uni": {
                    "deprecates": true
                }
            },
            "id": "gff_tigrinya_ethiopia",
            "name": "GFF Tigrinya-Ethiopia Keyboard",
            "authorName": "The Ge'ez Frontier Foundation",
            "authorEmail": "keyboards@ethiopic.org",
            "lastModifiedDate": "2020-06-12T00:39:26.912Z",
            "sourcePath": "release/gff/gff_tigrinya_ethiopia",
            "version": "1.3.11",
            "packageFilename": "gff_tigrinya_ethiopia.kmp",
            "jsFilename": "gff_tigrinya_ethiopia.js",
            "encodings": [
                "unicode"
            ],
            "jsFileSize": 38507,
            "packageFileSize": 3665864,
            "packageIncludes": [
                "documentation",
                "welcome",
                "visualKeyboard",
                "fonts"
            ],
            "minKeymanVersion": "10.0",
            "helpLink": "https://help.keyman.com/keyboard/gff_tigrinya_ethiopia",
            "platformSupport": {
                "windows": "full",
                "macos": "full",
                "linux": "full",
                "desktopWeb": "full",
                "mobileWeb": "full"
            },
            "match": {
                "name": "\u1275\u130d\u122d\u129b",
                "type": "language",
                "tag": "ti-et",
                "weight": 30,
                "downloads": 226,
                "totalDownloads": 226,
                "finalWeight": 192.74850052444208
            }
        },
        {
            "id": "sil_ethiopic_power_g",
            "name": "SIL Ethiopic Power-G",
            "description": "This keyboard was developed to input Ethiopic Saba Fidel scripts using the keyboarding sequences found in the \"Power Ge'ez (Phonetic)\" keyboard from Concepts Data Systems. The \"SIL Ethiopic Power-G\" keyboard is designed to work with the Abyssinica SIL font (version 1.200). However, unless you need to use the newest Unicode 6.0 Ethiopic codepoints (for Basketo, Gumuz and Gamo-Gofa-Dawro) or the Private Use Area (PUA) characters in this font, you can use this keyboard with any Ethiopic Unicode font.",
            "authorName": "SIL Ethiopia",
            "license": "mit",
            "languages": {
                "am": {
                    "displayName": "Amharic",
                    "languageName": "Amharic"
                },
                "bst-ethi": {
                    "displayName": "Basketo (Ethiopic)",
                    "languageName": "Basketo",
                    "scriptName": "Ethiopic"
                },
                "bcq-ethi": {
                    "displayName": "Bench (Ethiopic)",
                    "languageName": "Bench",
                    "scriptName": "Ethiopic"
                },
                "gdl-ethi": {
                    "displayName": "Dirasha (Ethiopic)",
                    "languageName": "Dirasha",
                    "scriptName": "Ethiopic"
                },
                "mdx-ethi": {
                    "displayName": "Dizin (Ethiopic)",
                    "languageName": "Dizin",
                    "scriptName": "Ethiopic"
                },
                "gez-ethi": {
                    "displayName": "Geez (Ethiopic)",
                    "languageName": "Geez",
                    "scriptName": "Ethiopic"
                },
                "guk-ethi": {
                    "displayName": "Gumuz (Ethiopic)",
                    "languageName": "Gumuz",
                    "scriptName": "Ethiopic"
                },
                "kxc-ethi": {
                    "displayName": "Konso (Ethiopic)",
                    "languageName": "Konso",
                    "scriptName": "Ethiopic"
                },
                "suq-ethi": {
                    "displayName": "Suri (Ethiopic)",
                    "languageName": "Suri",
                    "scriptName": "Ethiopic"
                },
                "tig-ethi": {
                    "displayName": "Tigre (Ethiopic)",
                    "languageName": "Tigre",
                    "scriptName": "Ethiopic"
                },
                "zay-ethi": {
                    "displayName": "Zayse-Zergulla (Ethiopic)",
                    "languageName": "Zayse-Zergulla",
                    "scriptName": "Ethiopic"
                }
            },
            "authorEmail": "computer_ethiopia@sil.org",
            "lastModifiedDate": "2020-06-12T00:41:07.988Z",
            "sourcePath": "release/sil/sil_ethiopic_power_g",
            "version": "1.2.2",
            "packageFilename": "sil_ethiopic_power_g.kmp",
            "jsFilename": "sil_ethiopic_power_g.js",
            "encodings": [
                "unicode"
            ],
            "jsFileSize": 10530,
            "packageFileSize": 199990,
            "packageIncludes": [
                "documentation",
                "welcome"
            ],
            "minKeymanVersion": "9.0",
            "helpLink": "https://help.keyman.com/keyboard/sil_ethiopic_power_g",
            "platformSupport": {
                "windows": "full",
                "macos": "full",
                "linux": "full",
                "android": "full",
                "ios": "full",
                "desktopWeb": "full",
                "mobileWeb": "full"
            },
            "match": {
                "name": "\u1275\u130d\u122b\u12ed\u1275",
                "type": "language",
                "tag": "tig-ethi",
                "weight": 30,
                "downloads": 149,
                "totalDownloads": 149,
                "finalWeight": 180.31905882288765
            }
        },
        {
            "id": "gff-tir-er-powerpack-7",
            "name": "GFF Eritrean-Tigrinya Language Keyboard + Font Power Pack",
            "description": "<p>An intuitive, easy to use, keyboard for entering Eritrean Tigrinya with standard English keyboards according to the GFF convention for Ethiopic script languages.</p>    <p><a href='http://ethiopic.keymankeyboards.com/' onclick=\"if(typeof pageTracker == 'undefined') return true; pageTracker._link(this.href); return false;\">Compare different Ethiopic keyboards online</a> now with KeymanWeb (no download required).</p>",
            "authorName": "The Ge'ez Frontier Foundation",
            "license": "freeware",
            "lastModifiedDate": "2012-11-16T15:40:56Z",
            "packageFilename": "gff-tir-er-powerpack-7.kmp",
            "encodings": [
                "unicode"
            ],
            "packageIncludes": [
                "fonts",
                "documentation",
                "visualKeyboard",
                "welcome"
            ],
            "version": "8.1",
            "minKeymanVersion": "7.0",
            "platformSupport": {
                "windows": "full",
                "macos": "full"
            },
            "languages": {
                "ti": {
                    "displayName": "Tigrinya",
                    "languageName": "Tigrinya"
                }
            },
            "authorEmail": "keyboards@ethiopic.org",
            "sourcePath": "legacy/gff/gff-tir-er-powerpack-7",
            "packageFileSize": 2463289,
            "deprecated": true,
            "match": {
                "name": "\u1275\u130d\u122d\u129b",
                "type": "language",
                "tag": "ti",
                "weight": 30,
                "downloads": 0,
                "totalDownloads": 0,
                "finalWeight": 30.0
            }
        },
        {
            "id": "gff-tir-et-powerpack-7",
            "name": "GFF Ethiopian-Tigrinya Language Keyboard + Font Power Pack",
            "description": "<p>An intuitive, easy to use, keyboard for entering Ethiopian Tigrinya with standard English keyboards according to the GFF convention for Ethiopic script languages.</p>    <p><a href='http://ethiopic.keymankeyboards.com/' onclick=\"if(typeof pageTracker == 'undefined') return true; pageTracker._link(this.href); return false;\">Compare different Ethiopic keyboards online</a> now with KeymanWeb (no download required).</p>",
            "authorName": "The Ge'ez Frontier Foundation",
            "license": "freeware",
            "lastModifiedDate": "2012-11-16T15:41:08Z",
            "packageFilename": "gff-tir-et-powerpack-7.kmp",
            "encodings": [
                "unicode"
            ],
            "packageIncludes": [
                "fonts",
                "documentation",
                "visualKeyboard",
                "welcome"
            ],
            "version": "8.1",
            "platformSupport": {
                "windows": "full",
                "macos": "full"
            },
            "languages": {
                "ti": {
                    "displayName": "Tigrinya",
                    "languageName": "Tigrinya"
                }
            },
            "authorEmail": "keyboards@ethiopic.org",
            "sourcePath": "legacy/gff/gff-tir-et-powerpack-7",
            "packageFileSize": 2466716,
            "minKeymanVersion": "8.0",
            "deprecated": true,
            "match": {
                "name": "\u1275\u130d\u122d\u129b",
                "type": "language",
                "tag": "ti",
                "weight": 30,
                "downloads": 0,
                "totalDownloads": 0,
                "finalWeight": 30.0
            }
        },
        {
            "id": "silethiopicv1.3k7",
            "name": "SIL Ethiopic Unicode",
            "description": "This keyboard was developed for keyboarding the Ethiopic Script. The \"SIL Ethiopic\" keyboard is designed to work best with the Abyssinica SIL font which is a part of this package. However, you can use this keyboard with any Ethiopic Unicode font (such as Nyala).\r\n\r\nThe Keyman source file is provided as a part of the package for convenience in modifying the keyboard.\r\n\r\nFor the official release of this SIL keyboard and fonts package, visit:\r\n   http://scripts.sil.org/AbyssinicaSIL_Download",
            "authorName": "SIL International and Hans Schaumberger",
            "license": "freeware",
            "lastModifiedDate": "2014-08-08T16:37:39Z",
            "packageFilename": "silethiopicv1.3k7.kmp",
            "encodings": [
                "unicode"
            ],
            "packageIncludes": [
                "fonts",
                "documentation"
            ],
            "version": "1.0",
            "minKeymanVersion": "6.0",
            "platformSupport": {
                "windows": "full",
                "macos": "full"
            },
            "languages": {
                "am": {
                    "displayName": "Amharic",
                    "languageName": "Amharic"
                },
                "awn": {
                    "displayName": "Awngi",
                    "languageName": "Awngi"
                },
                "bcq": {
                    "displayName": "Bench",
                    "languageName": "Bench"
                },
                "byn": {
                    "displayName": "Bilin",
                    "languageName": "Bilin"
                },
                "mdx": {
                    "displayName": "Dizin",
                    "languageName": "Dizin"
                },
                "gez": {
                    "displayName": "Geez",
                    "languageName": "Geez"
                },
                "mym": {
                    "displayName": "Me'en",
                    "languageName": "Me'en"
                },
                "muz": {
                    "displayName": "Mursi",
                    "languageName": "Mursi"
                },
                "sgw": {
                    "displayName": "Sebat Bet Gurage",
                    "languageName": "Sebat Bet Gurage"
                },
                "suq": {
                    "displayName": "Suri",
                    "languageName": "Suri"
                },
                "ti": {
                    "displayName": "Tigrinya",
                    "languageName": "Tigrinya"
                }
            },
            "authorEmail": "computer_ethiopia@sil.org",
            "sourcePath": "legacy/s/silethiopicv1.3k7",
            "packageFileSize": 1054813,
            "deprecated": true,
            "match": {
                "name": "\u1275\u130d\u122d\u129b",
                "type": "language",
                "tag": "ti",
                "weight": 30,
                "downloads": 0,
                "totalDownloads": 0,
                "finalWeight": 30.0
            }
        },
        {
            "id": "tir-er-uni",
            "name": "Tigrigna EZ (Eritrea)",
            "description": "<p>This keyboard implements the SERA EZ phonetic based  input methods for Ethiopic script in the Tigrigna language in Eritrea.</p>    <p>Ge'ez Frontier Foundation have now released and recommend using <a href='http://www.tavultesoft.com/keyman/downloads/keyboards/details.php?KeyboardID=459&FromKeyman=0'>GFF Eritrean-Tigrinya Language Keyboard + Font Power Pack</a> instead of the Tigrigna EZ (Eritrea) keyboard, as it uses GFF standard keyboard conventions and includes many more Ethiopic script fonts.</p>    <p><a href='http://ethiopic.keymankeyboards.com/' onclick=\"if(typeof pageTracker == 'undefined') return true; pageTracker._link(this.href); return false;\">Compare different Ethiopic keyboards online</a> now with KeymanWeb (no download required).</p>  ",
            "authorName": "Ge'ez Frontier Foundation",
            "license": "freeware",
            "lastModifiedDate": "2014-08-08T16:48:26Z",
            "packageFilename": "tir-er-uni.kmp",
            "encodings": [
                "unicode"
            ],
            "packageIncludes": [
                "fonts",
                "documentation",
                "visualKeyboard",
                "welcome"
            ],
            "version": "1.11",
            "minKeymanVersion": "7.0",
            "platformSupport": {
                "windows": "full",
                "macos": "full"
            },
            "languages": {
                "ti": {
                    "displayName": "Tigrinya",
                    "languageName": "Tigrinya"
                }
            },
            "authorEmail": "support@tavultesoft.com",
            "sourcePath": "legacy/t/tir-er-uni",
            "packageFileSize": 104216,
            "deprecated": true,
            "match": {
                "name": "\u1275\u130d\u122d\u129b",
                "type": "language",
                "tag": "ti",
                "weight": 30,
                "downloads": 0,
                "totalDownloads": 0,
                "finalWeight": 30.0
            }
        },
        {
            "id": "tir-et-uni",
            "name": "Tigrigna EZ (Ethiopia)",
            "description": "<p>This keyboard implements the SERA EZ phonetic based input methods for Ethiopic script in the Tigrigna language in Ethiopia.</p>    <p>Ge'ez Frontier Foundation have now released and recommend using <a href='http://www.tavultesoft.com/keyman/downloads/keyboards/details.php?KeyboardID=461&FromKeyman=0'>GFF Ethiopic-Tigrinya Language Keyboard + Font Power Pack</a> instead of the Tigrinya EZ (Ethiopia) keyboard, as it uses GFF standard keyboard conventions and includes many more Ethiopic script fonts.</p>    <p><a href='http://ethiopic.keymankeyboards.com/' onclick=\"if(typeof pageTracker == 'undefined') return true; pageTracker._link(this.href); return false;\">Compare different Ethiopic keyboards online</a> now with KeymanWeb (no download required).</p>",
            "authorName": "Ge'ez Frontier Foundation",
            "license": "freeware",
            "lastModifiedDate": "2014-08-08T16:48:34Z",
            "packageFilename": "tir-et-uni.kmp",
            "encodings": [
                "unicode"
            ],
            "packageIncludes": [
                "fonts",
                "documentation",
                "visualKeyboard",
                "welcome"
            ],
            "version": "1.11",
            "minKeymanVersion": "7.0",
            "platformSupport": {
                "windows": "full",
                "macos": "full"
            },
            "languages": {
                "ti": {
                    "displayName": "Tigrinya",
                    "languageName": "Tigrinya"
                }
            },
            "authorEmail": "support@tavultesoft.com",
            "sourcePath": "legacy/t/tir-et-uni",
            "packageFileSize": 104191,
            "deprecated": true,
            "match": {
                "name": "\u1275\u130d\u122d\u129b",
                "type": "language",
                "tag": "ti",
                "weight": 30,
                "downloads": 0,
                "totalDownloads": 0,
                "finalWeight": 30.0
            }
        },
        {
            "id": "tir_er_uni_ez",
            "name": "Tigrigna.ER EZ",
            "jsFilename": "tir_er_uni_ez.js",
            "platformSupport": {
                "desktopWeb": "full",
                "ios": "basic",
                "android": "basic"
            },
            "version": "1.0",
            "license": "mit",
            "languages": {
                "ti": {
                    "font": {
                        "family": "GeezWeb",
                        "source": [
                            "wookianos.ttf",
                            "ETHIOPI0.eot",
                            "wookianos.mobileconfig"
                        ]
                    },
                    "displayName": "Tigrinya",
                    "languageName": "Tigrinya"
                }
            },
            "lastModifiedDate": "2014-03-21T16:22:19Z",
            "sourcePath": "legacy/t/tir_er_uni_ez",
            "encodings": [
                "unicode"
            ],
            "jsFileSize": 13801,
            "minKeymanVersion": "5.0",
            "helpLink": "https://help.keyman.com/keyboard/tir_er_uni_ez",
            "deprecated": true,
            "match": {
                "name": "\u1275\u130d\u122d\u129b",
                "type": "language",
                "tag": "ti",
                "weight": 30,
                "downloads": 0,
                "totalDownloads": 0,
                "finalWeight": 30.0
            }
        }
   ]
}